[
  {
    "model": "main.usergroup",
    "pk": 1,
    "fields": {
      "group_name" : "viewer"
    }
  },
  {
    "model": "main.usergroup",
    "pk": 2,
    "fields": {
      "group_name" : "editor"
    }
  },
  {
    "model": "main.usergroup",
    "pk": 3,
    "fields": {
      "group_name" : "admin"
    }
  }
]